…
``` r
results <- tidy(ames_scores)
results
#> # A tibble: 73 × 4
#>    term            corr_rank     imp_rf   max_diff
#>    <chr>          <score_vc> <score_vc> <score_vc>
#>  1 Lot_Frontage       0.2276    0.75115        Inf
#>  2 Lot_Area           0.4292    1.64612        Inf
#>  3 Year_Built         0.6808    5.15427        Inf
#>  4 Year_Remod_Add     0.6015    3.29389        Inf
#>  5 Mas_Vnr_Area       0.4348    1.33136        Inf
#>  6 BsmtFin_SF_1       0.1152    0.47158        Inf
#>  7 BsmtFin_SF_2       0.0339    0.00751        Inf
#>  8 Bsmt_Unf_SF        0.1641    0.33071        Inf
#>  9 Total_Bsmt_SF      0.6066    4.33000        Inf
#> 10 First_Flr_SF       0.5815    3.98487        Inf
#> # ℹ 63 more rows
```
…
